…
``` r
df |>
  mutate(C = A + B)
```

For example, we can convert body mass to kilograms:

``` r
penguins |>
  mutate(body_mass_kg = body_mass_g / 1000)
```

    # A tibble: 344 × 9
       species island    bill_length_mm bill_depth_mm flipper_length_mm body_mass_g
       <fct>   <fct>              <dbl>         <dbl>             <int>       <int>
     1 Adelie  Torgersen           39.1          18.7               181        3750
     2 Adelie  Torgersen           39.5          17.4               186        3800
     3 Adelie  Torgersen           40.3          18                 195        3250
     4 Adelie  Torgersen           NA            NA                  NA          NA
     5 Adelie  Torgersen           36.7          19.3               193        3450
     6 Adelie  Torgersen           39.3          20.6               190        3650
     7 Adelie  Torgersen           38.9          17.8               181        3625
     8 Adelie  Torgersen           39.2          19.6               195        4675
     9 Adelie  Torgersen           34.1          18.1               193        3475
    10 Adelie  Torgersen           42            20.2               190        4250
    # ℹ 334 more rows
    # ℹ 3 more variables: sex <fct>, year <int>, body_mass_kg <dbl>

Notice that for some variables we have `NA` listed for missing values.
We can use `drop_na()` to remove the missing values from those variables

``` r
penguins |> 
  drop_na() #if we leave it blank it will remove any row with an NA
```

    # A tibble: 333 × 8
       species island    bill_length_mm bill_depth_mm flipper_length_mm body_mass_g
       <fct>   <fct>              <dbl>         <dbl>             <int>       <int>
     1 Adelie  Torgersen           39.1          18.7               181        3750
     2 Adelie  Torgersen           39.5          17.4               186        3800
     3 Adelie  Torgersen           40.3          18                 195        3250
     4 Adelie  Torgersen           36.7          19.3               193        3450
     5 Adelie  Torgersen           39.3          20.6               190        3650
     6 Adelie  Torgersen           38.9          17.8               181        3625
     7 Adelie  Torgersen           39.2          19.6               195        4675
     8 Adelie  Torgersen           41.1          17.6               182        3200
     9 Adelie  Torgersen           38.6          21.2               191        3800
    10 Adelie  Torgersen           34.6          21.1               198        4400
    # ℹ 323 more rows
    # ℹ 2 more variables: sex <fct>, year <int>

``` r
penguins |> 
  drop_na(sex) #adding a variable, removes rows with NA just for that variable
```

    # A tibble: 333 × 8
       species island    bill_length_mm bill_depth_mm flipper_length_mm body_mass_g
       <fct>   <fct>              <dbl>         <dbl>             <int>       <int>
     1 Adelie  Torgersen           39.1          18.7               181        3750
     2 Adelie  Torgersen           39.5          17.4               186        3800
     3 Adelie  Torgersen           40.3          18                 195        3250
     4 Adelie  Torgersen           36.7          19.3               193        3450
     5 Adelie  Torgersen           39.3          20.6               190        3650
     6 Adelie  Torgersen           38.9          17.8               181        3625
     7 Adelie  Torgersen           39.2          19.6               195        4675
     8 Adelie  Torgersen           41.1          17.6               182        3200
     9 Adelie  Torgersen           38.6          21.2               191        3800
    10 Adelie  Torgersen           34.6          21.1               198        4400
    # ℹ 323 more rows
    # ℹ 2 more variables: sex <fct>, year <int>
…
    [1] "species"           "island"            "bill_length_mm"   
    [4] "bill_depth_mm"     "flipper_length_mm" "body_mass_g"      
    [7] "sex"               "year"              "bill_ratio"       

``` r
penguins |>
  mutate(bill_ratio = bill_length_mm / bill_depth_mm,
         body_mass_kg = body_mass_g/1000,
         flipper_length_m = flipper_length_mm/1000)
```

    # A tibble: 344 × 11
       species island    bill_length_mm bill_depth_mm flipper_length_mm body_mass_g
       <fct>   <fct>              <dbl>         <dbl>             <int>       <int>
     1 Adelie  Torgersen           39.1          18.7               181        3750
     2 Adelie  Torgersen           39.5          17.4               186        3800
     3 Adelie  Torgersen           40.3          18                 195        3250
     4 Adelie  Torgersen           NA            NA                  NA          NA
     5 Adelie  Torgersen           36.7          19.3               193        3450
     6 Adelie  Torgersen           39.3          20.6               190        3650
     7 Adelie  Torgersen           38.9          17.8               181        3625
     8 Adelie  Torgersen           39.2          19.6               195        4675
     9 Adelie  Torgersen           34.1          18.1               193        3475
    10 Adelie  Torgersen           42            20.2               190        4250
    # ℹ 334 more rows
    # ℹ 5 more variables: sex <fct>, year <int>, bill_ratio <dbl>,
    #   body_mass_kg <dbl>, flipper_length_m <dbl>
…
    [1] "species"           "island"            "bill_length_mm"   
    [4] "bill_depth_mm"     "flipper_length_mm" "body_mass_g"      
    [7] "sex"               "year"              "bill_ratio"       

``` r
penguins |>
  filter(species == "Chinstrap")|>
  group_by(island)|>
  mutate(flip_max = max(flipper_length_mm), flip_min = min(flipper_length_mm))
```

    # A tibble: 68 × 11
    # Groups:   island [1]
       species   island bill_length_mm bill_depth_mm flipper_length_mm body_mass_g
       <fct>     <fct>           <dbl>         <dbl>             <int>       <int>
     1 Chinstrap Dream            46.5          17.9               192        3500
     2 Chinstrap Dream            50            19.5               196        3900
     3 Chinstrap Dream            51.3          19.2               193        3650
     4 Chinstrap Dream            45.4          18.7               188        3525
     5 Chinstrap Dream            52.7          19.8               197        3725
     6 Chinstrap Dream            45.2          17.8               198        3950
     7 Chinstrap Dream            46.1          18.2               178        3250
     8 Chinstrap Dream            51.3          18.2               197        3750
     9 Chinstrap Dream            46            18.9               195        4150
    10 Chinstrap Dream            51.3          19.9               198        3700
    # ℹ 58 more rows
    # ℹ 5 more variables: sex <fct>, year <int>, bill_ratio <dbl>, flip_max <int>,
    #   flip_min <int>
…
    [1] "species"           "island"            "bill_length_mm"   
    [4] "bill_depth_mm"     "flipper_length_mm" "body_mass_g"      
    [7] "sex"               "year"              "bill_ratio"       

``` r
penguins |>
  mutate(bill_ratio== bill_length_mm / bill_depth_mm)|>
  select(species, bill_ratio)|>
  group_by(species)|>
  mutate(bill_ratio_mean = mean(bill_ratio, na.rm = TRUE))
```

    # A tibble: 344 × 3
    # Groups:   species [3]
       species bill_ratio bill_ratio_mean
       <fct>        <dbl>           <dbl>
     1 Adelie        2.09            2.12
     2 Adelie        2.27            2.12
     3 Adelie        2.24            2.12
     4 Adelie       NA               2.12
     5 Adelie        1.90            2.12
     6 Adelie        1.91            2.12
     7 Adelie        2.19            2.12
     8 Adelie        2               2.12
     9 Adelie        1.88            2.12
    10 Adelie        2.08            2.12
    # ℹ 334 more rows
…
``` r
penguins |>
  mutate(size_bin = case_when(
      body_mass_g > 4500 ~ "large",
      body_mass_g > 3000 & body_mass_g <= 4500 ~ "medium",
      body_mass_g <= 3000 ~ "small"
    )
  )
```

    # A tibble: 344 × 10
       species island    bill_length_mm bill_depth_mm flipper_length_mm body_mass_g
       <fct>   <fct>              <dbl>         <dbl>             <int>       <int>
     1 Adelie  Torgersen           39.1          18.7               181        3750
     2 Adelie  Torgersen           39.5          17.4               186        3800
     3 Adelie  Torgersen           40.3          18                 195        3250
     4 Adelie  Torgersen           NA            NA                  NA          NA
     5 Adelie  Torgersen           36.7          19.3               193        3450
     6 Adelie  Torgersen           39.3          20.6               190        3650
     7 Adelie  Torgersen           38.9          17.8               181        3625
     8 Adelie  Torgersen           39.2          19.6               195        4675
     9 Adelie  Torgersen           34.1          18.1               193        3475
    10 Adelie  Torgersen           42            20.2               190        4250
    # ℹ 334 more rows
    # ℹ 4 more variables: sex <fct>, year <int>, bill_ratio <dbl>, size_bin <chr>
…
Identify what is going on in this code:

``` r
penguins |>
  select(species, year, flipper_length_mm) |>  #selects the variables to deal with 
  rename(study_year = year) |>   #renames the year variable study_year
  filter(species == "Adelie") |>  #looks only at adelie species
  mutate(flipper_rank = case_when(   #creates flipper_rank variable
    flipper_length_mm < 200 ~ 1,   #when less than 200mm ranked 1
    flipper_length_mm >= 200 ~ 2,  #when creater than or = 200 ranked 2
    TRUE ~ 0 # 0 for anything else
  ))
```

    # A tibble: 152 × 4
       species study_year flipper_length_mm flipper_rank
       <fct>        <int>             <int>        <dbl>
     1 Adelie        2007               181            1
     2 Adelie        2007               186            1
     3 Adelie        2007               195            1
     4 Adelie        2007                NA            0
     5 Adelie        2007               193            1
     6 Adelie        2007               190            1
     7 Adelie        2007               181            1
     8 Adelie        2007               195            1
     9 Adelie        2007               193            1
    10 Adelie        2007               190            1
    # ℹ 142 more rows
…
- “Year 1” if the year is 2007  
- “Year 2” if the year is 2008  
- “Year 3” if the year is 2009

``` r
#|label: using case_when
penguins |>
  mutate(study_year = case_when(  
    year == 2007 ~ "Year 1",   
    year == 2008 ~ "Year 2",  
    year == 2009 ~ "Year 3"))
```

    # A tibble: 344 × 10
       species island    bill_length_mm bill_depth_mm flipper_length_mm body_mass_g
       <fct>   <fct>              <dbl>         <dbl>             <int>       <int>
     1 Adelie  Torgersen           39.1          18.7               181        3750
     2 Adelie  Torgersen           39.5          17.4               186        3800
     3 Adelie  Torgersen           40.3          18                 195        3250
     4 Adelie  Torgersen           NA            NA                  NA          NA
     5 Adelie  Torgersen           36.7          19.3               193        3450
     6 Adelie  Torgersen           39.3          20.6               190        3650
     7 Adelie  Torgersen           38.9          17.8               181        3625
     8 Adelie  Torgersen           39.2          19.6               195        4675
     9 Adelie  Torgersen           34.1          18.1               193        3475
    10 Adelie  Torgersen           42            20.2               190        4250
    # ℹ 334 more rows
    # ℹ 4 more variables: sex <fct>, year <int>, bill_ratio <dbl>, study_year <chr>
…
``` r
penguins |>
  filter(species == "Chinstrap")|>
  select(flipper_length_mm,body_mass_g)|>
  mutate(fm_ratio = flipper_length_mm/ body_mass_g)|>
  mutate(ratio_bin = case_when(
    fm_ratio >=0.05 ~ "high",
    fm_ratio <0.05 ~ "low", 
    TRUE ~ NA
  ))
```

    # A tibble: 68 × 4
       flipper_length_mm body_mass_g fm_ratio ratio_bin
                   <int>       <int>    <dbl> <chr>    
     1               192        3500   0.0549 high     
     2               196        3900   0.0503 high     
     3               193        3650   0.0529 high     
     4               188        3525   0.0533 high     
     5               197        3725   0.0529 high     
     6               198        3950   0.0501 high     
     7               178        3250   0.0548 high     
     8               197        3750   0.0525 high     
     9               195        4150   0.0470 low      
    10               198        3700   0.0535 high     
    # ℹ 58 more rows
…
